{
 "autoname": "field:issue",
 "creation": "2020-12-20 00:43:10.350882",
 "doctype": "DocType",
 "editable_grid": 1,
 "engine": "InnoDB",
 "field_order": [
  "issue",
  "issue_details"
 ],
 "fields": [
  {
   "fieldname": "issue",
   "fieldtype": "Data",
   "label": "Issue",
   "unique": 1
  },
  {
   "fieldname": "issue_details",
   "fieldtype": "Small Text",
   "label": "Issue Details"
  }
 ],
 "modified": "2020-12-20 00:43:10.350882",
 "modified_by": "Administrator",
 "module": "Replacement Management",
 "name": "Issue List",
 "owner": "Administrator",
 "permissions": [
  {
   "create": 1,
   "delete": 1,
   "email": 1,
   "export": 1,
   "print": 1,
   "read": 1,
   "report": 1,
   "role": "System Manager",
   "share": 1,
   "write": 1
  }
 ],
 "quick_entry": 1,
 "sort_field": "modified",
 "sort_order": "DESC",
 "track_changes": 1
}