{
 "add_total_row": 0,
 "creation": "2021-04-28 09:45:07.426908",
 "disable_prepared_report": 0,
 "disabled": 0,
 "docstatus": 0,
 "doctype": "Report",
 "idx": 0,
 "is_standard": "Yes",
 "letter_head": "Company Letter Head",
 "modified": "2021-04-28 09:46:32.314774",
 "modified_by": "Administrator",
 "module": "Replacement Management",
 "name": "RMA Status",
 "owner": "Administrator",
 "prepared_report": 0,
 "ref_doctype": "Regular Replacement Request",
 "report_name": "RMA Status",
 "report_type": "Script Report",
 "roles": [
  {
   "role": "System Manager"
  },
  {
   "role": "System Manager"
  },
  {
   "role": "System Manager"
  },
  {
   "role": "System Manager"
  },
  {
   "role": "System Manager"
  },
  {
   "role": "System Manager"
  },
  {
   "role": "System Manager"
  },
  {
   "role": "System Manager"
  },
  {
   "role": "System Manager"
  },
  {
   "role": "System Manager"
  },
  {
   "role": "System Manager"
  },
  {
   "role": "System Manager"
  },
  {
   "role": "System Manager"
  },
  {
   "role": "System Manager"
  },
  {
   "role": "System Manager"
  },
  {
   "role": "System Manager"
  },
  {
   "role": "Sales Executive"
  },
  {
   "role": "Dealer"
  },
  {
   "role": "RMA Admin"
  },
  {
   "role": "Distributor"
  },
  {
   "role": "RMA Engineer"
  },
  {
   "role": "Dealer"
  },
  {
   "role": "RMA Admin"
  },
  {
   "role": "Distributor"
  },
  {
   "role": "RMA Engineer"
  },
  {
   "role": "Dealer"
  },
  {
   "role": "RMA Admin"
  },
  {
   "role": "Distributor"
  },
  {
   "role": "RMA Engineer"
  },
  {
   "role": "Dealer"
  },
  {
   "role": "RMA Admin"
  },
  {
   "role": "Distributor"
  },
  {
   "role": "RMA Engineer"
  },
  {
   "role": "Dealer"
  },
  {
   "role": "RMA Admin"
  },
  {
   "role": "Distributor"
  },
  {
   "role": "RMA Engineer"
  },
  {
   "role": "Dealer"
  },
  {
   "role": "RMA Admin"
  },
  {
   "role": "Distributor"
  },
  {
   "role": "RMA Engineer"
  },
  {
   "role": "Dealer"
  },
  {
   "role": "RMA Admin"
  },
  {
   "role": "Distributor"
  },
  {
   "role": "RMA Engineer"
  },
  {
   "role": "Dealer"
  },
  {
   "role": "RMA Admin"
  },
  {
   "role": "Distributor"
  },
  {
   "role": "RMA Engineer"
  },
  {
   "role": "Dealer"
  },
  {
   "role": "RMA Admin"
  },
  {
   "role": "Distributor"
  },
  {
   "role": "RMA Engineer"
  },
  {
   "role": "Dealer"
  },
  {
   "role": "RMA Admin"
  },
  {
   "role": "Distributor"
  },
  {
   "role": "RMA Engineer"
  },
  {
   "role": "Dealer"
  },
  {
   "role": "RMA Admin"
  },
  {
   "role": "Distributor"
  },
  {
   "role": "RMA Engineer"
  },
  {
   "role": "Dealer"
  },
  {
   "role": "RMA Admin"
  },
  {
   "role": "Distributor"
  },
  {
   "role": "RMA Engineer"
  },
  {
   "role": "Dealer"
  },
  {
   "role": "RMA Admin"
  },
  {
   "role": "Distributor"
  },
  {
   "role": "RMA Engineer"
  },
  {
   "role": "Dealer"
  },
  {
   "role": "RMA Admin"
  },
  {
   "role": "Distributor"
  },
  {
   "role": "RMA Engineer"
  },
  {
   "role": "Dealer"
  },
  {
   "role": "RMA Admin"
  },
  {
   "role": "Distributor"
  },
  {
   "role": "RMA Engineer"
  },
  {
   "role": "Dealer"
  },
  {
   "role": "RMA Admin"
  },
  {
   "role": "Distributor"
  },
  {
   "role": "RMA Engineer"
  },
  {
   "role": "Dealer"
  },
  {
   "role": "RMA Admin"
  },
  {
   "role": "Distributor"
  },
  {
   "role": "RMA Engineer"
  },
  {
   "role": "Dealer"
  },
  {
   "role": "RMA Admin"
  },
  {
   "role": "Distributor"
  },
  {
   "role": "RMA Engineer"
  },
  {
   "role": "Dealer"
  },
  {
   "role": "RMA Admin"
  },
  {
   "role": "Distributor"
  },
  {
   "role": "RMA Engineer"
  }
 ]
}